Your Document Title
…
## [1] "2014-09-07" "2020-03-02"

dim(dates)

## [1] 23  2

dates

## # A tibble: 23 x 2
##    Date           n
##    <date>     <int>
##  1 2014-09-07  4665
##  2 2014-10-20  9738
##  3 2014-10-24 26342
##  4 2015-06-04 43581
##  5 2015-06-05  3606
##  6 2015-11-10  5171
##  7 2016-03-02  5477
##  8 2016-06-21  4204
##  9 2016-06-28  3772
## 10 2016-10-04  5662
## # ... with 13 more rows
…
